Categories:Multimedia
License:GPL-3.0-only
Web Site:https://gitlab.com/axet/android-hourly-reminder
Source Code:https://gitlab.com/axet/android-hourly-reminder/tree/HEAD
Issue Tracker:https://gitlab.com/axet/android-hourly-reminder/issues

Auto Name:Hourly Reminder
Summary:Remind you about hours passed
Description:
Never miss an alarm: This app reminds you about hours passed. Application will
pronounce current time on user specified hours. You can choice alarm types:
beep, speech or custom wav/ogg files.
.

Repo Type:git
Repo:https://gitlab.com/axet/android-hourly-reminder.git

Build:2.2.15,239
    commit=hourlyreminder-2.2.15
    subdir=app
    gradle=yes

Build:2.2.17,241
    commit=hourlyreminder-2.2.17
    subdir=app
    gradle=yes

Build:2.3.4,246
    commit=hourlyreminder-2.3.4
    subdir=app
    gradle=yes

Build:2.3.7,249
    commit=hourlyreminder-2.3.7
    subdir=app
    gradle=yes

Build:2.3.9,251
    commit=hourlyreminder-2.3.9
    subdir=app
    gradle=yes

Build:3.0.3,255
    commit=hourlyreminder-3.0.3
    subdir=app
    gradle=yes

Build:3.0.5,257
    commit=hourlyreminder-3.0.5
    subdir=app
    gradle=yes

Build:3.0.14,266
    disable=doesnt build
    commit=hourlyreminder-3.0.14
    subdir=app
    gradle=yes

Build:3.0.19,271
    commit=hourlyreminder-3.0.19
    subdir=app
    gradle=yes

Build:3.0.22,274
    commit=hourlyreminder-3.0.22
    subdir=app
    gradle=yes

Build:3.0.25,277
    commit=hourlyreminder-3.0.25
    subdir=app
    gradle=yes

Build:3.0.30,282
    commit=hourlyreminder-3.0.30
    subdir=app
    gradle=yes

Build:3.0.31,283
    commit=hourlyreminder-3.0.31
    subdir=app
    gradle=yes

Build:3.0.32,284
    commit=hourlyreminder-3.0.32
    subdir=app
    gradle=yes

Build:3.0.33,285
    commit=hourlyreminder-3.0.33
    subdir=app
    gradle=yes

Build:3.0.35,287
    commit=hourlyreminder-3.0.35
    subdir=app
    gradle=yes

Build:3.0.36,288
    commit=hourlyreminder-3.0.36
    subdir=app
    gradle=yes

Build:3.0.37,289
    commit=hourlyreminder-3.0.37
    subdir=app
    gradle=yes

Build:3.0.42,294
    commit=hourlyreminder-3.0.42
    subdir=app
    gradle=yes

Build:3.0.43,295
    commit=hourlyreminder-3.0.43
    subdir=app
    gradle=yes

Build:3.0.45,297
    commit=hourlyreminder-3.0.45
    subdir=app
    gradle=yes

Build:3.0.47,299
    commit=hourlyreminder-3.0.47
    subdir=app
    gradle=yes

Build:3.0.49,301
    commit=hourlyreminder-3.0.49
    subdir=app
    gradle=yes

Build:3.0.50,302
    commit=hourlyreminder-3.0.50
    subdir=app
    gradle=yes

Build:3.0.51,303
    commit=hourlyreminder-3.0.51
    subdir=app
    gradle=yes

Build:3.0.52,304
    commit=hourlyreminder-3.0.52
    subdir=app
    gradle=yes

Build:3.0.53,305
    commit=hourlyreminder-3.0.53
    subdir=app
    gradle=yes

Build:3.0.54,306
    commit=hourlyreminder-3.0.54
    subdir=app
    gradle=yes

Build:3.0.55,307
    commit=hourlyreminder-3.0.55
    subdir=app
    gradle=yes

Build:3.0.56,308
    commit=hourlyreminder-3.0.56
    subdir=app
    gradle=yes

Build:3.0.59,311
    commit=hourlyreminder-3.0.59
    subdir=app
    gradle=yes

Build:3.0.61,313
    commit=hourlyreminder-3.0.61
    subdir=app
    gradle=yes

Build:3.0.64,316
    commit=hourlyreminder-3.0.64
    subdir=app
    gradle=yes

Build:3.0.67,319
    commit=hourlyreminder-3.0.67
    subdir=app
    gradle=yes

Build:3.0.68,320
    commit=hourlyreminder-3.0.68
    subdir=app
    gradle=yes

Build:3.1.5,326
    commit=hourlyreminder-3.1.5
    subdir=app
    gradle=yes

Build:3.1.7,328
    commit=hourlyreminder-3.1.7
    subdir=app
    gradle=yes

Build:3.1.8,329
    commit=hourlyreminder-3.1.8
    subdir=app
    gradle=yes

Build:3.1.15,336
    commit=hourlyreminder-3.1.15
    subdir=app
    gradle=yes

Build:3.1.16,337
    commit=hourlyreminder-3.1.16
    subdir=app
    gradle=yes

Build:3.1.17,338
    commit=hourlyreminder-3.1.17
    subdir=app
    gradle=yes

Build:3.1.18,339
    commit=hourlyreminder-3.1.18
    subdir=app
    gradle=yes

Build:3.1.20,341
    commit=hourlyreminder-3.1.20
    subdir=app
    gradle=yes

Build:3.1.21,342
    commit=hourlyreminder-3.1.21
    subdir=app
    gradle=yes

Build:3.1.22,343
    commit=hourlyreminder-3.1.22
    subdir=app
    gradle=yes

Build:3.1.23,344
    disable=Wrong Gradle version
    commit=hourlyreminder-3.1.23
    subdir=app
    gradle=yes

Build:3.1.24,345
    commit=hourlyreminder-3.1.24
    subdir=app
    gradle=yes
    prebuild=sed -i -e "s/gradleVersion = '4.2.1'/gradleVersion = '4.6'/" ../build.gradle

Build:3.1.25,346
    commit=hourlyreminder-3.1.25
    subdir=app
    gradle=yes
    prebuild=sed -i -e "s/gradleVersion = '4.2.1'/gradleVersion = '4.6'/" ../build.gradle

Build:3.1.26,347
    commit=hourlyreminder-3.1.26
    subdir=app
    gradle=yes
    prebuild=sed -i -e "s/gradleVersion = '4.2.1'/gradleVersion = '4.6'/" ../build.gradle

Build:3.2.2,350
    commit=hourlyreminder-3.2.2
    subdir=app
    gradle=yes
    prebuild=sed -i -e "s/gradleVersion = '4.2.1'/gradleVersion = '4.6'/" ../build.gradle

Build:3.2.3,351
    commit=hourlyreminder-3.2.3
    subdir=app
    gradle=yes
    prebuild=sed -i -e "s/gradleVersion = '4.2.1'/gradleVersion = '4.6'/" ../build.gradle

Build:3.2.4,352
    commit=hourlyreminder-3.2.4
    subdir=app
    gradle=yes
    prebuild=sed -i -e "s/gradleVersion = '4.2.1'/gradleVersion = '4.6'/" ../build.gradle

Build:3.2.7,355
    commit=hourlyreminder-3.2.7
    subdir=app
    gradle=yes
    prebuild=sed -i -e "s/gradleVersion = '4.2.1'/gradleVersion = '4.6'/" ../build.gradle

Build:3.2.9,357
    commit=hourlyreminder-3.2.9
    subdir=app
    gradle=yes
    prebuild=sed -i -e "s/gradleVersion = '4.2.1'/gradleVersion = '4.6'/" ../build.gradle

Build:3.2.13,361
    commit=hourlyreminder-3.2.13
    subdir=app
    gradle=yes
    prebuild=sed -i -e "s/gradleVersion = '4.2.1'/gradleVersion = '4.6'/" ../build.gradle

Build:3.2.14,362
    commit=hourlyreminder-3.2.14
    subdir=app
    gradle=yes
    prebuild=sed -i -e "s/gradleVersion = '4.2.1'/gradleVersion = '4.6'/" ../build.gradle

Build:3.2.18,366
    commit=hourlyreminder-3.2.18
    subdir=app
    gradle=yes
    prebuild=sed -i -e "s/gradleVersion = '4.2.1'/gradleVersion = '4.6'/" ../build.gradle

Build:3.2.20,368
    commit=hourlyreminder-3.2.20
    subdir=app
    gradle=yes
    prebuild=sed -i -e "s/gradleVersion = '4.2.1'/gradleVersion = '4.6'/" ../build.gradle

Build:3.2.22,370
    commit=hourlyreminder-3.2.22
    subdir=app
    gradle=yes
    prebuild=sed -i -e "s/gradleVersion = '4.2.1'/gradleVersion = '4.6'/" ../build.gradle

Build:3.2.24,372
    commit=hourlyreminder-3.2.24
    subdir=app
    gradle=yes
    prebuild=sed -i -e "s/gradleVersion = '4.2.1'/gradleVersion = '4.6'/" ../build.gradle

Auto Update Mode:Version hourlyreminder-%v
Update Check Mode:Tags
Current Version:3.2.24
Current Version Code:372
